IceBear003/v2.0/test_sram_state.vcd
$date
	Sun Apr 14 03:31:19 2024
$end
$version
	Icarus Verilog
$end
$timescale
	1ps
$end
$scope module tb_port $end
$var wire 1 ! writting $end
$var wire 1 " reading $end
$var wire 8 # rd_ecc_code [7:0] $end
$var wire 32 $ preference_level [31:0] $end
$var wire 11 % null_ptr [10:0] $end
$var wire 1 & full $end
$var wire 11 ' free_space [10:0] $end
$var parameter 32 ( PERIOD $end
$var reg 1 ) clk $end
$var reg 11 * rd_addr [10:0] $end
$var reg 11 + rd_ecc_addr [10:0] $end
$var reg 1 , rd_op $end
$var reg 4 - rd_port [3:0] $end
$var reg 1 . rst_n $end
$var reg 11 / wr_ecc_addr [10:0] $end
$var reg 8 0 wr_ecc_code [7:0] $end
$var reg 1 1 wr_ecc_en $end
$var reg 1 2 wr_op $end
$var reg 4 3 wr_port [3:0] $end
$scope module sram_state_0 $end
$var wire 1 ) clk $end
$var wire 11 4 rd_addr [10:0] $end
$var wire 11 5 rd_ecc_addr [10:0] $end
$var wire 1 , rd_op $end
$var wire 4 6 rd_port [3:0] $end
$var wire 1 . rst_n $end
$var wire 11 7 wr_ecc_addr [10:0] $end
$var wire 8 8 wr_ecc_code [7:0] $end
$var wire 1 1 wr_ecc_en $end
$var wire 1 2 wr_op $end
$var wire 4 9 wr_port [3:0] $end
$var wire 11 : null_ptr [10:0] $end
$var reg 11 ; debug [10:0] $end
$var reg 11 < free_space [10:0] $end
$var reg 1 & full $end
$var reg 32 = prefer [31:0] $end
$var reg 3 > rd_batch [2:0] $end
$var reg 8 ? rd_ecc_code [7:0] $end
$var reg 1 " reading $end
$var reg 3 @ wr_batch [2:0] $end
$var reg 1 ! writting $end
$var integer 32 A i [31:0] $end
$var integer 32 B j [31:0] $end
$scope module fifo $end
$var wire 1 ) clk $end
$var wire 1 2 pop_head $end
$var wire 1 , push_tail $end
$var wire 1 . rst_n $end
$var wire 11 C tail_addr [10:0] $end
$var reg 16 D head [15:0] $end
$var reg 11 E head_addr [10:0] $end
$var reg 8 F head_ptr [7:0] $end
$var reg 16 G tail [15:0] $end
$var reg 8 H tail_ptr [7:0] $end
$var integer 32 I i [31:0] $end
$upscope $end
$upscope $end
$upscope $end
$enddefinitions $end
$comment Show the parameter values. $end
$dumpall
b1010 (
$end
#0
$dumpvars
bx I
b111111 H
bx G
b0 F
bx E
bx D
b0 C
b10000 B
bx A
b1 @
bx ?
b1 >
b11111111111111111111111111111111 =
b11111111111 <
b0 ;
bx :
bx 9
b0 8
b0 7
bx 6
b0 5
b0 4
bx 3
02
01
b0 0
b0 /
1.
bx -
0,
b0 +
b0 *
1)
b11111111111 '
0&
bx %
b11111111111111111111111111111111 $
bx #
0"
0!
$end
#5000
0)
#10000
b10 >
b10 @
b0 $
b0 =
b10000 B
b100000000 I
b10000 A
1)
0.
#15000
0)
#20000
b0 %
b0 :
b0 E
b111110 D
b1000000 $
b1000000 =
b10000 B
1!
b1 ;
b11111111110 '
b11111111110 <
b11 >
b0 @
1)
b11 -
b11 6
b11 3
b11 9
12
1.
#25000
0)
#30000
b1 %
b1 :
b1 E
b100 >
b1 @
b10000 B
1)
02
#35000
0)
#40000
b10000 B
b101 >
b10 @
1)
#45000
0)
#50000
b110 >
b11 @
b10000 B
1)
#55000
0)
#60000
b10000 B
b111 >
b100 @
1)
#65000
0)
#70000
b101 @
b10000 B
1)
#75000
0)
#80000
b10000 B
b110 @
1)
#85000
0)
#90000
b111 @
b10000 B
1)
#95000
0)
#100000
b10000 B
0!
1)
#105000
0)
#110000
b10000 B
1)
#115000
0)
#120000
b1011101 D
b10000 B
1!
b0 @
b10 ;
b11111111101 '
b11111111101 <
1)
12
#125000
0)
#130000
b10 %
b10 :
b10 E
b1000000 H
b0 G
1"
b0 >
b11111111110 '
b11111111110 <
b1 @
b10000 B
1)
1,
02
#135000
0)
#140000
b1111100 D
b10000 B
b11 ;
b11111111101 '
b11111111101 <
b1 >
b0 @
1)
12
0,
#145000
0)
#150000
b10011011 D
b11 %
b11 :
b11 E
b100 ;
b11111111100 '
b11111111100 <
b10 >
b0 @
b10000 B
1)
#155000
0)
#160000
b10111010 D
b100 %
b100 :
b100 E
b10000 B
b101 ;
b11111111011 '
b11111111011 <
b11 >
b0 @
1)
#165000
0)
#170000
b11011001 D
b101 %
b101 :
b101 E
b110 ;
b11111111010 '
b11111111010 <
b100 >
b0 @
b10000 B
1)
#175000
0)
#180000
b11111000 D
b110 %
b110 :
b110 E
b10000 B
b111 ;
b11111111001 '
b11111111001 <
b101 >
b0 @
1)
#185000
0)
#190000
b100010111 D
b111 %
b111 :
b111 E
b1000 ;
b11111111000 '
b11111111000 <
b110 >
b0 @
b10000 B
1)
#195000
0)
#200000
b100110110 D
b1000 %
b1000 :
b1000 E
b10000 B
b1001 ;
b11111110111 '
b11111110111 <
b111 >
b0 @
1)
#205000
0)
#210000
b101010101 D
b1001 %
b1001 :
b1001 E
b1010 ;
b11111110110 '
b11111110110 <
0"
b0 @
b10000 B
1)
#215000
0)
#220000
b101110100 D
b1010 %
b1010 :
b1010 E
b10000 B
b1011 ;
b11111110101 '
b11111110101 <
b0 @
1)
#225000
0)
#230000
b110010011 D
b1011 %
b1011 :
b1011 E
b1100 ;
b11111110100 '
b11111110100 <
b0 @
b10000 B
1)
#235000
0)
#240000
b110110010 D
b1100 %
b1100 :
b1100 E
b10000 B
b1101 ;
b11111110011 '
b11111110011 <
b0 @
1)
#245000
0)
#250000
b111010001 D
b1101 %
b1101 :
b1101 E
b1110 ;
b11111110010 '
b11111110010 <
b0 @
b10000 B
1)
#255000
0)
#260000
b111110000 D
b1110 %
b1110 :
b1110 E
b10000 B
b1111 ;
b11111110001 '
b11111110001 <
b0 @
1)
#265000
0)
#270000
b1000001111 D
b1111 %
b1111 :
b1111 E
b10000 ;
b11111110000 '
b11111110000 <
b0 @
b10000 B
1)
#275000
0)
#280000
b1000101110 D
b10000 %
b10000 :
b10000 E
b10000 B
b10001 ;
b11111101111 '
b11111101111 <
b0 @
1)
#285000
0)
#290000
b1001001101 D
b10001 %
b10001 :
b10001 E
b10010 ;
b11111101110 '
b11111101110 <
b0 @
b10000 B
1)
#295000
0)
#300000
b1001101100 D
b10010 %
b10010 :
b10010 E
b10000 B
b10011 ;
b11111101101 '
b11111101101 <
b0 @
1)
#305000
0)
#310000
b1010001011 D
b10011 %
b10011 :
b10011 E
b10100 ;
b11111101100 '
b11111101100 <
b0 @
b10000 B
1)
#315000
0)
#320000
b1010101010 D
b10100 %
b10100 :
b10100 E
b10000 B
b10101 ;
b11111101011 '
b11111101011 <
b0 @
1)
#325000
0)
#330000
b1011001001 D
b10101 %
b10101 :
b10101 E
b10110 ;
b11111101010 '
b11111101010 <
b0 @
b10000 B
1)
#335000
0)
#340000
b1011101000 D
b10110 %
b10110 :
b10110 E
b10000 B
b10111 ;
b11111101001 '
b11111101001 <
b0 @
1)
#345000
0)
#350000
b1100000111 D
b10111 %
b10111 :
b10111 E
b11000 ;
b11111101000 '
b11111101000 <
b0 @
b10000 B
1)
#355000
0)
#360000
b1100100110 D
b11000 %
b11000 :
b11000 E
b10000 B
b11001 ;
b11111100111 '
b11111100111 <
b0 @
1)
#365000
0)
#370000
b1101000101 D
b11001 %
b11001 :
b11001 E
b11010 ;
b11111100110 '
b11111100110 <
b0 @
b10000 B
1)
#375000
0)
#380000
b1101100100 D
b11010 %
b11010 :
b11010 E
b10000 B
b11011 ;
b11111100101 '
b11111100101 <
b0 @
1)
#385000
0)
#390000
b1110000011 D
b11011 %
b11011 :
b11011 E
b11100 ;
b11111100100 '
b11111100100 <
b0 @
b10000 B
1)
#395000
0)
#400000
b1110100010 D
b11100 %
b11100 :
b11100 E
b10000 B
b11101 ;
b11111100011 '
b11111100011 <
b0 @
1)
#405000
0)
#410000
b1111000001 D
b11101 %
b11101 :
b11101 E
b11110 ;
b11111100010 '
b11111100010 <
b0 @
b10000 B
1)
#415000
0)
#420000
b1111100000 D
b11110 %
b11110 :
b11110 E
b10000 B
b11111 ;
b11111100001 '
b11111100001 <
b0 @
1)
#425000
0)
#430000
b10000011111 D
b1 F
b11111 %
b11111 :
b11111 E
b100000 ;
b11111100000 '
b11111100000 <
b0 @
b10000 B
1)
#435000
0)
#440000
b10000111110 D
b100000 %
b100000 :
b100000 E
b10000 B
b100001 ;
b11111011111 '
b11111011111 <
b0 @
1)
#445000
0)
#450000
b10001011101 D
b100001 %
b100001 :
b100001 E
b100010 ;
b11111011110 '
b11111011110 <
b0 @
b10000 B
1)
#455000
0)
#460000
b10001111100 D
b100010 %
b100010 :
b100010 E
b10000 B
b100011 ;
b11111011101 '
b11111011101 <
b0 @
1)
#465000
0)
#470000
b10010011011 D
b100011 %
b100011 :
b100011 E
b100100 ;
b11111011100 '
b11111011100 <
b0 @
b10000 B
1)
#475000
0)
#480000
b10010111010 D
b100100 %
b100100 :
b100100 E
b10000 B
b100101 ;
b11111011011 '
b11111011011 <
b0 @
1)
#485000
0)
#490000
b10011011001 D
b100101 %
b100101 :
b100101 E
b100110 ;
b11111011010 '
b11111011010 <
b0 @
b10000 B
1)
#495000
0)
#500000
b10011111000 D
b100110 %
b100110 :
b100110 E
b10000 B
b100111 ;
b11111011001 '
b11111011001 <
b0 @
1)
#505000
0)
#510000
b10100010111 D
b100111 %
b100111 :
b100111 E
b101000 ;
b11111011000 '
b11111011000 <
b0 @
b10000 B
1)
#515000
0)
#520000
b10100110110 D
b101000 %
b101000 :
b101000 E
b10000 B
b101001 ;
b11111010111 '
b11111010111 <
b0 @
1)
#525000
0)
#530000
b10101010101 D
b101001 %
b101001 :
b101001 E
b101010 ;
b11111010110 '
b11111010110 <
b0 @
b10000 B
1)
#535000
0)
#540000
b10101110100 D
b101010 %
b101010 :
b101010 E
b10000 B
b101011 ;
b11111010101 '
b11111010101 <
b0 @
1)
#545000
0)
#550000
b10110010011 D
b101011 %
b101011 :
b101011 E
b101100 ;
b11111010100 '
b11111010100 <
b0 @
b10000 B
1)
#555000
0)
#560000
b10110110010 D
b101100 %
b101100 :
b101100 E
b10000 B
b101101 ;
b11111010011 '
b11111010011 <
b0 @
1)
#565000
0)
#570000
b10111010001 D
b101101 %
b101101 :
b101101 E
b101110 ;
b11111010010 '
b11111010010 <
b0 @
b10000 B
1)
#575000
0)
#580000
b10111110000 D
b101110 %
b101110 :
b101110 E
b10000 B
b101111 ;
b11111010001 '
b11111010001 <
b0 @
1)
#585000
0)
#590000
b11000001111 D
b101111 %
b101111 :
b101111 E
b110000 ;
b11111010000 '
b11111010000 <
b0 @
b10000 B
1)
#595000
0)
#600000
b11000101110 D
b110000 %
b110000 :
b110000 E
b10000 B
b110001 ;
b11111001111 '
b11111001111 <
b0 @
1)
#605000
0)
#610000
b11001001101 D
b110001 %
b110001 :
b110001 E
b110010 ;
b11111001110 '
b11111001110 <
b0 @
b10000 B
1)
#615000
0)
#620000
b11001101100 D
b110010 %
b110010 :
b110010 E
b10000 B
b110011 ;
b11111001101 '
b11111001101 <
b0 @
1)
#625000
0)
#630000
b11010001011 D
b110011 %
b110011 :
b110011 E
b110100 ;
b11111001100 '
b11111001100 <
b0 @
b10000 B
1)
#635000
0)
#640000
b11010101010 D
b110100 %
b110100 :
b110100 E
b10000 B
b110101 ;
b11111001011 '
b11111001011 <
b0 @
1)
#645000
0)
#650000
b11011001001 D
b110101 %
b110101 :
b110101 E
b110110 ;
b11111001010 '
b11111001010 <
b0 @
b10000 B
1)
#655000
0)
#660000
b11011101000 D
b110110 %
b110110 :
b110110 E
b10000 B
b110111 ;
b11111001001 '
b11111001001 <
b0 @
1)
#665000
0)
#670000
b11100000111 D
b110111 %
b110111 :
b110111 E
b111000 ;
b11111001000 '
b11111001000 <
b0 @
b10000 B
1)
#675000
0)
#680000
b11100100110 D
b111000 %
b111000 :
b111000 E
b10000 B
b111001 ;
b11111000111 '
b11111000111 <
b0 @
1)
#685000
0)
#690000
b11101000101 D
b111001 %
b111001 :
b111001 E
b111010 ;
b11111000110 '
b11111000110 <
b0 @
b10000 B
1)
#695000
0)
#700000
b11101100100 D
b111010 %
b111010 :
b111010 E
b10000 B
b111011 ;
b11111000101 '
b11111000101 <
b0 @
1)
#705000
0)
#710000
b11110000011 D
b111011 %
b111011 :
b111011 E
b111100 ;
b11111000100 '
b11111000100 <
b0 @
b10000 B
1)
#715000
0)
#720000
b11110100010 D
b111100 %
b111100 :
b111100 E
b10000 B
b111101 ;
b11111000011 '
b11111000011 <
b0 @
1)
#725000
0)
#730000
b11111000001 D
b111101 %
b111101 :
b111101 E
b111110 ;
b11111000010 '
b11111000010 <
b0 @
b10000 B
1)
#735000
0)
#740000
b11111100000 D
b111110 %
b111110 :
b111110 E
b10000 B
b111111 ;
b11111000001 '
b11111000001 <
b0 @
1)
#745000
0)
#750000
b100000011111 D
b10 F
b111111 %
b111111 :
b111111 E
b1000000 ;
b11111000000 '
b11111000000 <
b0 @
b10000 B
1)
#755000
0)
#760000
b100000111110 D
b1000000 %
b1000000 :
b1000000 E
b10000 B
b1000001 ;
b11110111111 '
b11110111111 <
b0 @
1)
#765000
0)
#770000
b100001011101 D
b1000001 %
b1000001 :
b1000001 E
b1000010 ;
b11110111110 '
b11110111110 <
b0 @
b10000 B
1)
#775000
0)
#780000
b100001111100 D
b1000010 %
b1000010 :
b1000010 E
b10000 B
b1000011 ;
b11110111101 '
b11110111101 <
b0 @
1)
#785000
0)
#790000
b100010011011 D
b1000011 %
b1000011 :
b1000011 E
b1000100 ;
b11110111100 '
b11110111100 <
b0 @
b10000 B
1)
#795000
0)
#800000
b100010111010 D
b1000100 %
b1000100 :
b1000100 E
b10000 B
b1000101 ;
b11110111011 '
b11110111011 <
b0 @
1)
#805000
0)
#810000
b100011011001 D
b1000101 %
b1000101 :
b1000101 E
b1000110 ;
b11110111010 '
b11110111010 <
b0 @
b10000 B
1)
#815000
0)
#820000
b100011111000 D
b1000110 %
b1000110 :
b1000110 E
b10000 B
b1000111 ;
b11110111001 '
b11110111001 <
b0 @
1)
#825000
0)
#830000
b100100010111 D
b1000111 %
b1000111 :
b1000111 E
b1001000 ;
b11110111000 '
b11110111000 <
b0 @
b10000 B
1)
#835000
0)
#840000
b100100110110 D
b1001000 %
b1001000 :
b1001000 E
b10000 B
b1001001 ;
b11110110111 '
b11110110111 <
b0 @
1)
#845000
0)
#850000
b100101010101 D
b1001001 %
b1001001 :
b1001001 E
b1001010 ;
b11110110110 '
b11110110110 <
b0 @
b10000 B
1)
#855000
0)
#860000
b100101110100 D
b1001010 %
b1001010 :
b1001010 E
b10000 B
b1001011 ;
b11110110101 '
b11110110101 <
b0 @
1)
#865000
0)
#870000
b100110010011 D
b1001011 %
b1001011 :
b1001011 E
b1001100 ;
b11110110100 '
b11110110100 <
b0 @
b10000 B
1)
#875000
0)
#880000
b100110110010 D
b1001100 %
b1001100 :
b1001100 E
b10000 B
b1001101 ;
b11110110011 '
b11110110011 <
b0 @
1)
#885000
0)
#890000
b100111010001 D
b1001101 %
b1001101 :
b1001101 E
b1001110 ;
b11110110010 '
b11110110010 <
b0 @
b10000 B
1)
#895000
0)
#900000
b100111110000 D
b1001110 %
b1001110 :
b1001110 E
b10000 B
b1001111 ;
b11110110001 '
b11110110001 <
b0 @
1)
#905000
0)
#910000
b101000001111 D
b1001111 %
b1001111 :
b1001111 E
b1010000 ;
b11110110000 '
b11110110000 <
b0 @
b10000 B
1)
#915000
0)
#920000
b101000101110 D
b1010000 %
b1010000 :
b1010000 E
b10000 B
b1010001 ;
b11110101111 '
b11110101111 <
b0 @
1)
#925000
0)
#930000
b101001001101 D
b1010001 %
b1010001 :
b1010001 E
b1010010 ;
b11110101110 '
b11110101110 <
b0 @
b10000 B
1)
#935000
0)
#940000
b101001101100 D
b1010010 %
b1010010 :
b1010010 E
b10000 B
b1010011 ;
b11110101101 '
b11110101101 <
b0 @
1)
#945000
0)
#950000
b101010001011 D
b1010011 %
b1010011 :
b1010011 E
b1010100 ;
b11110101100 '
b11110101100 <
b0 @
b10000 B
1)
#955000
0)
#960000
b101010101010 D
b1010100 %
b1010100 :
b1010100 E
b10000 B
b1010101 ;
b11110101011 '
b11110101011 <
b0 @
1)
#965000
0)
#970000
b101011001001 D
b1010101 %
b1010101 :
b1010101 E
b1010110 ;
b11110101010 '
b11110101010 <
b0 @
b10000 B
1)
#975000
0)
#980000
b101011101000 D
b1010110 %
b1010110 :
b1010110 E
b10000 B
b1010111 ;
b11110101001 '
b11110101001 <
b0 @
1)
#985000
0)
#990000
b101100000111 D
b1010111 %
b1010111 :
b1010111 E
b1011000 ;
b11110101000 '
b11110101000 <
b0 @
b10000 B
1)
#995000
0)
#1000000
b101100100110 D
b1011000 %
b1011000 :
b1011000 E
b10000 B
b1011001 ;
b11110100111 '
b11110100111 <
b0 @
1)
#1005000
0)
#1010000
b101101000101 D
b1011001 %
b1011001 :
b1011001 E
b1011010 ;
b11110100110 '
b11110100110 <
b0 @
b10000 B
1)
#1015000
0)
#1020000
b101101100100 D
b1011010 %
b1011010 :
b1011010 E
b10000 B
b1011011 ;
b11110100101 '
b11110100101 <
b0 @
1)
#1025000
0)
#1030000
b101110000011 D
b1011011 %
b1011011 :
b1011011 E
b1011100 ;
b11110100100 '
b11110100100 <
b0 @
b10000 B
1)
#1035000
0)
#1040000
b101110100010 D
b1011100 %
b1011100 :
b1011100 E
b10000 B
b1011101 ;
b11110100011 '
b11110100011 <
b0 @
1)
#1045000
0)
#1050000
b101111000001 D
b1011101 %
b1011101 :
b1011101 E
b1011110 ;
b11110100010 '
b11110100010 <
b0 @
b10000 B
1)
#1055000
0)
#1060000
b101111100000 D
b1011110 %
b1011110 :
b1011110 E
b10000 B
b1011111 ;
b11110100001 '
b11110100001 <
b0 @
1)
#1065000
0)
#1070000
b110000011111 D
b11 F
b1011111 %
b1011111 :
b1011111 E
b1100000 ;
b11110100000 '
b11110100000 <
b0 @
b10000 B
1)
#1075000
0)
#1080000
b110000111110 D
b1100000 %
b1100000 :
b1100000 E
b10000 B
b1100001 ;
b11110011111 '
b11110011111 <
b0 @
1)
#1085000
0)
#1090000
b110001011101 D
b1100001 %
b1100001 :
b1100001 E
b1100010 ;
b11110011110 '
b11110011110 <
b0 @
b10000 B
1)
#1095000
0)
#1100000
b110001111100 D
b1100010 %
b1100010 :
b1100010 E
b10000 B
b1100011 ;
b11110011101 '
b11110011101 <
b0 @
1)
#1105000
0)
#1110000
b110010011011 D
b1100011 %
b1100011 :
b1100011 E
b1100100 ;
b11110011100 '
b11110011100 <
b0 @
b10000 B
1)
#1115000
0)
#1120000
b110010111010 D
b1100100 %
b1100100 :
b1100100 E
b10000 B
b1100101 ;
b11110011011 '
b11110011011 <
b0 @
1)
#1125000
0)
#1130000
b110011011001 D
b1100101 %
b1100101 :
b1100101 E
b1100110 ;
b11110011010 '
b11110011010 <
b0 @
b10000 B
1)
#1135000
0)
#1140000
b110011111000 D
b1100110 %
b1100110 :
b1100110 E
b10000 B
b1100111 ;
b11110011001 '
b11110011001 <
b0 @
1)
#1145000
0)
#1150000
b110100010111 D
b1100111 %
b1100111 :
b1100111 E
b1101000 ;
b11110011000 '
b11110011000 <
b0 @
b10000 B
1)
#1155000
0)
#1160000
b110100110110 D
b1101000 %
b1101000 :
b1101000 E
b10000 B
b1101001 ;
b11110010111 '
b11110010111 <
b0 @
1)
#1165000
0)
#1170000
b110101010101 D
b1101001 %
b1101001 :
b1101001 E
b1101010 ;
b11110010110 '
b11110010110 <
b0 @
b10000 B
1)
#1175000
0)
#1180000
b110101110100 D
b1101010 %
b1101010 :
b1101010 E
b10000 B
b1101011 ;
b11110010101 '
b11110010101 <
b0 @
1)
#1185000
0)
#1190000
b110110010011 D
b1101011 %
b1101011 :
b1101011 E
b1101100 ;
b11110010100 '
b11110010100 <
b0 @
b10000 B
1)
#1195000
0)
#1200000
b110110110010 D
b1101100 %
b1101100 :
b1101100 E
b10000 B
b1101101 ;
b11110010011 '
b11110010011 <
b0 @
1)
#1205000
0)
#1210000
b110111010001 D
b1101101 %
b1101101 :
b1101101 E
b1101110 ;
b11110010010 '
b11110010010 <
b0 @
b10000 B
1)
#1215000
0)
#1220000
b110111110000 D
b1101110 %
b1101110 :
b1101110 E
b10000 B
b1101111 ;
b11110010001 '
b11110010001 <
b0 @
1)
#1225000
0)
#1230000
b111000001111 D
b1101111 %
b1101111 :
b1101111 E
b1110000 ;
b11110010000 '
b11110010000 <
b0 @
b10000 B
1)
#1235000
0)
#1240000
b111000101110 D
b1110000 %
b1110000 :
b1110000 E
b10000 B
b1110001 ;
b11110001111 '
b11110001111 <
b0 @
1)
#1245000
0)
#1250000
b111001001101 D
b1110001 %
b1110001 :
b1110001 E
b1110010 ;
b11110001110 '
b11110001110 <
b0 @
b10000 B
1)
#1255000
0)
#1260000
b111001101100 D
b1110010 %
b1110010 :
b1110010 E
b10000 B
b1110011 ;
b11110001101 '
b11110001101 <
b0 @
1)
#1265000
0)
#1270000
b111010001011 D
b1110011 %
b1110011 :
b1110011 E
b1110100 ;
b11110001100 '
b11110001100 <
b0 @
b10000 B
1)
#1275000
0)
#1280000
b111010101010 D
b1110100 %
b1110100 :
b1110100 E
b10000 B
b1110101 ;
b11110001011 '
b11110001011 <
b0 @
1)
#1285000
0)
#1290000
b111011001001 D
b1110101 %
b1110101 :
b1110101 E
b1110110 ;
b11110001010 '
b11110001010 <
b0 @
b10000 B
1)
#1295000
0)
#1300000
b111011101000 D
b1110110 %
b1110110 :
b1110110 E
b10000 B
b1110111 ;
b11110001001 '
b11110001001 <
b0 @
1)
#1305000
0)
#1310000
b111100000111 D
b1110111 %
b1110111 :
b1110111 E
b1111000 ;
b11110001000 '
b11110001000 <
b0 @
b10000 B
1)
#1315000
0)
#1320000
b111100100110 D
b1111000 %
b1111000 :
b1111000 E
b10000 B
b1111001 ;
b11110000111 '
b11110000111 <
b0 @
1)
#1325000
0)
#1330000
b111101000101 D
b1111001 %
b1111001 :
b1111001 E
b1111010 ;
b11110000110 '
b11110000110 <
b0 @
b10000 B
1)
#1335000
0)
#1340000
b111101100100 D
b1111010 %
b1111010 :
b1111010 E
b10000 B
b1111011 ;
b11110000101 '
b11110000101 <
b0 @
1)
#1345000
0)
#1350000
b111110000011 D
b1111011 %
b1111011 :
b1111011 E
b1111100 ;
b11110000100 '
b11110000100 <
b0 @
b10000 B
1)
#1355000
0)
#1360000
b111110100010 D
b1111100 %
b1111100 :
b1111100 E
b10000 B
b1111101 ;
b11110000011 '
b11110000011 <
b0 @
1)
#1365000
0)
#1370000
b111111000001 D
b1111101 %
b1111101 :
b1111101 E
b1111110 ;
b11110000010 '
b11110000010 <
b0 @
b10000 B
1)
#1375000
0)
#1380000
b111111100000 D
b1111110 %
b1111110 :
b1111110 E
b10000 B
b1111111 ;
b11110000001 '
b11110000001 <
b0 @
1)
#1385000
0)
#1390000
b1000000011111 D
b100 F
b1111111 %
b1111111 :
b1111111 E
b10000000 ;
b11110000000 '
b11110000000 <
b0 @
b10000 B
1)
#1395000
0)
#1400000
b1000000111110 D
b10000000 %
b10000000 :
b10000000 E
b10000 B
b10000001 ;
b11101111111 '
b11101111111 <
b0 @
1)
#1405000
0)
#1410000
b1000001011101 D
b10000001 %
b10000001 :
b10000001 E
b10000010 ;
b11101111110 '
b11101111110 <
b0 @
b10000 B
1)
#1415000
0)
#1420000
b1000001111100 D
b10000010 %
b10000010 :
b10000010 E
b10000 B
b10000011 ;
b11101111101 '
b11101111101 <
b0 @
1)
#1425000
0)
#1430000
b1000010011011 D
b10000011 %
b10000011 :
b10000011 E
b10000100 ;
b11101111100 '
b11101111100 <
b0 @
b10000 B
1)
#1435000
0)
#1440000
b1000010111010 D
b10000100 %
b10000100 :
b10000100 E
b10000 B
b10000101 ;
b11101111011 '
b11101111011 <
b0 @
1)
#1445000
0)
#1450000
b1000011011001 D
b10000101 %
b10000101 :
b10000101 E
b10000110 ;
b11101111010 '
b11101111010 <
b0 @
b10000 B
1)
#1455000
0)
#1460000
b1000011111000 D
b10000110 %
b10000110 :
b10000110 E
b10000 B
b10000111 ;
b11101111001 '
b11101111001 <
b0 @
1)
#1465000
0)
#1470000
b1000100010111 D
b10000111 %
b10000111 :
b10000111 E
b10001000 ;
b11101111000 '
b11101111000 <
b0 @
b10000 B
1)
#1475000
0)
#1480000
b1000100110110 D
b10001000 %
b10001000 :
b10001000 E
b10000 B
b10001001 ;
b11101110111 '
b11101110111 <
b0 @
1)
#1485000
0)
#1490000
b1000101010101 D
b10001001 %
b10001001 :
b10001001 E
b10001010 ;
b11101110110 '
b11101110110 <
b0 @
b10000 B
1)
#1495000
0)
#1500000
b1000101110100 D
b10001010 %
b10001010 :
b10001010 E
b10000 B
b10001011 ;
b11101110101 '
b11101110101 <
b0 @
1)
#1505000
0)
#1510000
b1000110010011 D
b10001011 %
b10001011 :
b10001011 E
b10001100 ;
b11101110100 '
b11101110100 <
b0 @
b10000 B
1)
#1515000
0)
#1520000
b1000110110010 D
b10001100 %
b10001100 :
b10001100 E
b10000 B
b10001101 ;
b11101110011 '
b11101110011 <
b0 @
1)
#1525000
0)
#1530000
b1000111010001 D
b10001101 %
b10001101 :
b10001101 E
b10001110 ;
b11101110010 '
b11101110010 <
b0 @
b10000 B
1)
#1535000
0)
#1540000
b1000111110000 D
b10001110 %
b10001110 :
b10001110 E
b10000 B
b10001111 ;
b11101110001 '
b11101110001 <
b0 @
1)
#1545000
0)
#1550000
b1001000001111 D
b10001111 %
b10001111 :
b10001111 E
b10010000 ;
b11101110000 '
b11101110000 <
b0 @
b10000 B
1)
#1555000
0)
#1560000
b1001000101110 D
b10010000 %
b10010000 :
b10010000 E
b10000 B
b10010001 ;
b11101101111 '
b11101101111 <
b0 @
1)
#1565000
0)
#1570000
b1001001001101 D
b10010001 %
b10010001 :
b10010001 E
b10010010 ;
b11101101110 '
b11101101110 <
b0 @
b10000 B
1)
#1575000
0)
#1580000
b1001001101100 D
b10010010 %
b10010010 :
b10010010 E
b10000 B
b10010011 ;
b11101101101 '
b11101101101 <
b0 @
1)
#1585000
0)
#1590000
b1001010001011 D
b10010011 %
b10010011 :
b10010011 E
b10010100 ;
b11101101100 '
b11101101100 <
b0 @
b10000 B
1)
#1595000
0)
#1600000
b1001010101010 D
b10010100 %
b10010100 :
b10010100 E
b10000 B
b10010101 ;
b11101101011 '
b11101101011 <
b0 @
1)
#1605000
0)
#1610000
b1001011001001 D
b10010101 %
b10010101 :
b10010101 E
b10010110 ;
b11101101010 '
b11101101010 <
b0 @
b10000 B
1)
#1615000
0)
#1620000
b1001011101000 D
b10010110 %
b10010110 :
b10010110 E
b10000 B
b10010111 ;
b11101101001 '
b11101101001 <
b0 @
1)
#1625000
0)
#1630000
b1001100000111 D
b10010111 %
b10010111 :
b10010111 E
b10011000 ;
b11101101000 '
b11101101000 <
b0 @
b10000 B
1)
#1635000
0)
#1640000
b1001100100110 D
b10011000 %
b10011000 :
b10011000 E
b10000 B
b10011001 ;
b11101100111 '
b11101100111 <
b0 @
1)
#1645000
0)
#1650000
b1001101000101 D
b10011001 %
b10011001 :
b10011001 E
b10011010 ;
b11101100110 '
b11101100110 <
b0 @
b10000 B
1)
#1655000
0)
#1660000
b1001101100100 D
b10011010 %
b10011010 :
b10011010 E
b10000 B
b10011011 ;
b11101100101 '
b11101100101 <
b0 @
1)
#1665000
0)
#1670000
b1001110000011 D
b10011011 %
b10011011 :
b10011011 E
b10011100 ;
b11101100100 '
b11101100100 <
b0 @
b10000 B
1)
#1675000
0)
#1680000
b1001110100010 D
b10011100 %
b10011100 :
b10011100 E
b10000 B
b10011101 ;
b11101100011 '
b11101100011 <
b0 @
1)
#1685000
0)
#1690000
b1001111000001 D
b10011101 %
b10011101 :
b10011101 E
b10011110 ;
b11101100010 '
b11101100010 <
b0 @
b10000 B
1)
#1695000
0)
#1700000
b1001111100000 D
b10011110 %
b10011110 :
b10011110 E
b10000 B
b10011111 ;
b11101100001 '
b11101100001 <
b0 @
1)
#1705000
0)
#1710000
b1010000011111 D
b101 F
b10011111 %
b10011111 :
b10011111 E
b10100000 ;
b11101100000 '
b11101100000 <
b0 @
b10000 B
1)
#1715000
0)
#1720000
b1010000111110 D
b10100000 %
b10100000 :
b10100000 E
b10000 B
b10100001 ;
b11101011111 '
b11101011111 <
b0 @
1)
#1725000
0)
#1730000
b1010001011101 D
b10100001 %
b10100001 :
b10100001 E
b10100010 ;
b11101011110 '
b11101011110 <
b0 @
b10000 B
1)
#1735000
0)
#1740000
b1010001111100 D
b10100010 %
b10100010 :
b10100010 E
b10000 B
b10100011 ;
b11101011101 '
b11101011101 <
b0 @
1)
#1745000
0)
#1750000
b1010010011011 D
b10100011 %
b10100011 :
b10100011 E
b10100100 ;
b11101011100 '
b11101011100 <
b0 @
b10000 B
1)
#1755000
0)
#1760000
b1010010111010 D
b10100100 %
b10100100 :
b10100100 E
b10000 B
b10100101 ;
b11101011011 '
b11101011011 <
b0 @
1)
#1765000
0)
#1770000
b1010011011001 D
b10100101 %
b10100101 :
b10100101 E
b10100110 ;
b11101011010 '
b11101011010 <
b0 @
b10000 B
1)
#1775000
0)
#1780000
b1010011111000 D
b10100110 %
b10100110 :
b10100110 E
b10000 B
b10100111 ;
b11101011001 '
b11101011001 <
b0 @
1)
#1785000
0)
#1790000
b1010100010111 D
b10100111 %
b10100111 :
b10100111 E
b10101000 ;
b11101011000 '
b11101011000 <
b0 @
b10000 B
1)
#1795000
0)
#1800000
b1010100110110 D
b10101000 %
b10101000 :
b10101000 E
b10000 B
b10101001 ;
b11101010111 '
b11101010111 <
b0 @
1)
#1805000
0)
