IceBear003/v2.0/test_port.vcd
$date
	Thu Apr 11 05:10:22 2024
$end
$version
	Icarus Verilog
$end
$timescale
	1ps
$end
$scope module tb_port $end
$var wire 1 ! wr_en $end
$var wire 3 " prior [2:0] $end
$var wire 1 # is_ctrl_frame $end
$var wire 1 $ full $end
$var wire 4 % dest_port [3:0] $end
$var wire 16 & data [15:0] $end
$var wire 3 ' batch [2:0] $end
$var wire 1 ( almost_full $end
$var parameter 32 ) PERIOD $end
$var reg 1 * clk $end
$var reg 16 + wr_data [15:0] $end
$var reg 1 , wr_eop $end
$var reg 1 - wr_sop $end
$var reg 1 . wr_vld $end
$scope module port_0 $end
$var wire 1 * clk $end
$var wire 1 / ready $end
$var wire 16 0 wr_data [15:0] $end
$var wire 1 , wr_eop $end
$var wire 1 - wr_sop $end
$var wire 1 . wr_vld $end
$var reg 1 ( almost_full $end
$var reg 3 1 batch [2:0] $end
$var reg 16 2 data [15:0] $end
$var reg 4 3 dest_port [3:0] $end
$var reg 1 $ full $end
$var reg 1 # is_ctrl_frame $end
$var reg 3 4 prior [2:0] $end
$var reg 16 5 rd_data [15:0] $end
$var reg 1 6 rd_eop $end
$var reg 1 7 rd_sop $end
$var reg 1 8 rd_vld $end
$var reg 1 ! wr_en $end
$upscope $end
$upscope $end
$enddefinitions $end
$comment Show the parameter values. $end
$dumpall
b1010 )
$end
#0
$dumpvars
08
07
06
b0 5
b0 4
b0 3
b0 2
b0 1
b0 0
z/
0.
0-
0,
b0 +
1*
0(
b0 '
b0 &
b0 %
0$
0#
b0 "
0!
$end
#5000
0*
#10000
1*
#15000
0*
#20000
1#
1*
1-
#25000
0*
#30000
1*
0-
#35000
0*
#40000
1*
b101000001111 +
b101000001111 0
#45000
0*
#50000
b1 '
b1 1
0#
b11100000101 &
b11100000101 2
b1 "
b1 4
b10 %
b10 3
1!
1*
b1111010010010 +
b1111010010010 0
1.
#55000
0*
#60000
b10 '
b10 1
b101000010111011 &
b101000010111011 2
1*
b101000010111011 +
b101000010111011 0
#65000
0*
#70000
b11 '
b11 1
b100001111010000 &
b100001111010000 2
1*
b100001111010000 +
b100001111010000 0
#75000
0*
#80000
b100 '
b100 1
b111111000100000 &
b111111000100000 2
1*
b111111000100000 +
b111111000100000 0
#85000
0*
#90000
b101 '
b101 1
b1100 &
b1100 2
1*
b1100 +
b1100 0
#95000
0*
#100000
b110 '
b110 1
b111111111111110 &
b111111111111110 2
1*
b111111111111110 +
b111111111111110 0
#105000
0*
#110000
b111 '
b111 1
b1000001 &
b1000001 2
1*
b1000001 +
b1000001 0
#115000
0*
#120000
b0 '
b0 1
b111110001000001 &
b111110001000001 2
1*
b111110001000001 +
b111110001000001 0
#125000
0*
#130000
b1 '
b1 1
b1100 &
b1100 2
1*
b1100 +
b1100 0
#135000
0*
#140000
b10 '
b10 1
b111111111111110 &
b111111111111110 2
1*
b111111111111110 +
b111111111111110 0
#145000
0*
#150000
0!
b0 &
b0 2
b0 %
b0 3
b0 "
b0 4
b0 '
b0 1
1*
1,
0.
#155000
0*
#160000
1*
#165000
0*
#170000
1#
1*
1-
#175000
0*
#180000
1*
0-
